%YAML 1.1
%TAG !u! tag:unity3d.com,2011:
--- !u!1045 &1
EditorBuildSettings:
  m_ObjectHideFlags: 0
  serializedVersion: 2
  m_Scenes:
  - enabled: 0
    path: Assets/SharedAssets/Benchmark/BenchmarkScene.unity
    guid: d1335b3b949d2e646b481776723757a2
  - enabled: 0
    path: Assets/Scenes/Terminal/TerminalScene.unity
    guid: 4496a3dbb8d263043a4460bac5382ac5
  - enabled: 0
    path: Assets/Scenes/Oasis/OasisScene.unity
    guid: 9fa2ba603a3424f9bafa4119f837f2bc
  - enabled: 0
    path: Assets/Scenes/Garden/GardenScene.unity
    guid: 81e71078978223e4c8ffbf973484c9c5
  - enabled: 0
    path: Assets/Scenes/Cockpit/CockpitScene.unity
    guid: b78a0ca5d851e4ddf993dcc6feab56d0
  - enabled: 1
    path: Assets/App/Scenes/SampleScene.unity
    guid: 9fc0d4010bbf28b4594072e72b8655ab
  m_configObjects:
    Unity.XR.Oculus.Settings: {fileID: 11400000, guid: 290a6e6411d135049940bec2237b8938, type: 2}
    com.unity.input.settings: {fileID: 11400000, guid: 9e7be553448fa2546aea5752021cbcf7, type: 2}
    com.unity.xr.management.loader_settings: {fileID: 11400000, guid: 4c1640683c539c14080cfd43fbeffbda, type: 2}
    xr.sdk.mock-hmd.settings: {fileID: 11400000, guid: 9e9f2958d1b4b4642ace1d0c7770650b, type: 2}
